Collapse row labels into a single column — collapse_row_labels • Tplyr
…
collapse_row_labels(x, row_label1, row_label2, row_label3, row_label4)
#> # A tibble: 35 × 2
#>    row_label  var1
#>    <chr>     <int>
#>  1 "A"          NA
#>  2 "  C"        NA
#>  3 "    G"      NA
#>  4 "      M"     1
#>  5 "      N"     2
#>  6 "A"          NA
#>  7 "  C"        NA
#>  8 "    H"      NA
#>  9 "      O"     3
#> 10 "A"          NA
#> # ℹ 25 more rows
…
