A grammar of summary data for clinical reports — Tplyr • Tplyr
…
    Examples

# Load in pipe
library(magrittr)

# Use just the defaults
tplyr_table(mtcars, gear) %>%
  add_layer(
    group_desc(mpg, by=cyl)
  ) %>%
  add_layer(
    group_count(carb, by=cyl)
  ) %>%
  build()
#> # A tibble: 36 × 8
#>    row_label1 row_label2 var1_3        var1_4 var1_5 ord_layer_index ord_layer_1
#>    <chr>      <chr>      <chr>         <chr>  <chr>            <int>       <dbl>
#>  1 4          n          "  1"         "  8"  "  2"                1           1
#>  2 4          Mean (SD)  "21.50 (    … "26.9… "28.2…               1           1
#>  3 4          Median     "21.50"       "25.8… "28.2…               1           1
#>  4 4          Q1, Q3     "21.50, 21.5… "22.8… "27.1…               1           1
#>  5 4          Min, Max   "21.5, 21.5"  "21.4… "26.0…               1           1
#>  6 4          Missing    "  0"         "  0"  "  0"                1           1
#>  7 6          n          "  2"         "  4"  "  1"                1           2
#>  8 6          Mean (SD)  "19.75 ( 2.3… "19.7… "19.7…               1           2
#>  9 6          Median     "19.75"       "20.1… "19.7…               1           2
#> 10 6          Q1, Q3     "18.92, 20.5… "18.8… "19.7…               1           2
#> # ℹ 26 more rows
#> # ℹ 1 more variable: ord_layer_2 <dbl>
…
#> Warning: Chi-squared approximation may be incorrect
#> Warning: Chi-squared approximation may be incorrect
#> Warning: Chi-squared approximation may be incorrect
#> Warning: Chi-squared approximation may be incorrect
#> Warning: Chi-squared approximation may be incorrect
#> Warning: Chi-squared approximation may be incorrect
#> Warning: Chi-squared approximation may be incorrect
#> Warning: Chi-squared approximation may be incorrect
#> Warning: Chi-squared approximation may be incorrect
#> Warning: Chi-squared approximation may be incorrect
#> Warning: Chi-squared approximation may be incorrect
#> Warning: Chi-squared approximation may be incorrect
#> Warning: Chi-squared approximation may be incorrect
#> Warning: Chi-squared approximation may be incorrect
#> # A tibble: 36 × 10
#>    row_label1 row_label2 var1_3        var1_4 var1_5 ord_layer_index ord_layer_1
#>    <chr>      <chr>      <chr>         <chr>  <chr>            <int>       <dbl>
#>  1 4          n          " 1"          " 8"   " 2"                 1           1
#>  2 4          Mean (SD)  "21.50 (    … "26.9… "28.2…               1           1
#>  3 4          Median     "21.50"       "25.8… "28.2…               1           1
#>  4 4          Q1, Q3     "22, 22"      "23, … "27, …               1           1
#>  5 4          Min, Max   "22, 22"      "21, … "26, …               1           1
#>  6 4          Missing    " 0"          " 0"   " 0"                 1           1
#>  7 6          n          " 2"          " 4"   " 1"                 1           2
#>  8 6          Mean (SD)  "19.75 ( 2.3… "19.7… "19.7…               1           2
#>  9 6          Median     "19.75"       "20.1… "19.7…               1           2
#> 10 6          Q1, Q3     "19, 21"      "19, … "20, …               1           2
#> # ℹ 26 more rows
#> # ℹ 3 more variables: ord_layer_2 <dbl>, rdiff_5_3 <chr>, rdiff_4_3 <chr>
…
