A Grammar of Clinical Data Summary • Tplyr
…
There’s another trick going on here - to create a summary with row label text like you see above, text strings can be used as the target variables. Here, we use this in combination with set_distinct_by to count distinct subjects.

Adverse event tables often call for counting AEs of something like a body system and counting actual events within that body system. Tplyr has means of making this simple for the user as well.

tplyr_table(adae, TRTA) %>% 
  add_layer(
    group_count(vars(AEBODSYS, AEDECOD))
  ) %>% 
  build()

# A tibble: 265 x 5
   row_label1                                row_label2                 var1_Placebo  `var1_Xanomeline High … `var1_Xanomeline Low D…
   <chr>                                     <chr>                      <chr>         <chr>                   <chr>                  
 1 GENERAL DISORDERS AND ADMINISTRATION SIT… NA                         " 48 (100.0%… "124 (100.0%)"          "120 (100.0%)"         
 2 GENERAL DISORDERS AND ADMINISTRATION SIT… APPLICATION SITE BLEEDING  "  0 (  0.0%… "  0 (  0.0%)"          "  1 (  0.8%)"         
 3 GENERAL DISORDERS AND ADMINISTRATION SIT… APPLICATION SITE DERMATIT… "  9 ( 18.8%… " 12 (  9.7%)"          " 15 ( 12.5%)"         
 4 GENERAL DISORDERS AND ADMINISTRATION SIT… APPLICATION SITE DESQUAMA… "  0 (  0.0%… "  0 (  0.0%)"          "  1 (  0.8%)"         
 5 GENERAL DISORDERS AND ADMINISTRATION SIT… APPLICATION SITE DISCHARGE "  0 (  0.0%… "  1 (  0.8%)"          "  0 (  0.0%)"         
 6 GENERAL DISORDERS AND ADMINISTRATION SIT… APPLICATION SITE DISCOLOU… "  0 (  0.0%… "  0 (  0.0%)"          "  1 (  0.8%)"         
 7 GENERAL DISORDERS AND ADMINISTRATION SIT… APPLICATION SITE ERYTHEMA  "  3 (  6.2%… " 23 ( 18.5%)"          " 20 ( 16.7%)"         
 8 GENERAL DISORDERS AND ADMINISTRATION SIT… APPLICATION SITE INDURATI… "  1 (  2.1%… "  0 (  0.0%)"          "  0 (  0.0%)"         
 9 GENERAL DISORDERS AND ADMINISTRATION SIT… APPLICATION SITE IRRITATI… "  7 ( 14.6%… " 16 ( 12.9%)"          " 18 ( 15.0%)"         
10 GENERAL DISORDERS AND ADMINISTRATION SIT… APPLICATION SITE PAIN      "  0 (  0.0%… "  2 (  1.6%)"          "  0 (  0.0%)"         
# … with 255 more rows
…
