Tplyr (Alpha Release) • Tplyr
…
There’s another trick going on here - to create a summary with row label text like you see above, text strings can be used as the target variables. Here, we use this in combination with set_distinct_by to count distinct subjects.

Adverse event tables often call for counting AEs of something like a body system and counting actual events within that body system. Tplyr has means of making this simple for the user as well.

tplyr_table(adae, TRTA) %>%
  add_layer(
    group_count(vars(AEBODSYS, AEDECOD))
  ) %>%
  build()
#> # A tibble: 104 x 8
#>    row_label1 row_label2 var1_Placebo `var1_Xanomelin… `var1_Xanomelin…
#>    <chr>      <chr>      <chr>        <chr>            <chr>           
#>  1 CARDIAC D… "CARDIAC … " 5 ( 10.6%… " 6 (  7.8%)"    " 6 (  7.9%)"   
#>  2 CARDIAC D… "   ATRIA… " 0 (  0.0%… " 0 (  0.0%)"    " 1 (  1.3%)"   
#>  3 CARDIAC D… "   ATRIA… " 0 (  0.0%… " 1 (  1.3%)"    " 0 (  0.0%)"   
#>  4 CARDIAC D… "   ATRIA… " 1 (  2.1%… " 0 (  0.0%)"    " 0 (  0.0%)"   
#>  5 CARDIAC D… "   BUNDL… " 1 (  2.1%… " 0 (  0.0%)"    " 0 (  0.0%)"   
#>  6 CARDIAC D… "   CARDI… " 1 (  2.1%… " 0 (  0.0%)"    " 0 (  0.0%)"   
#>  7 CARDIAC D… "   MYOCA… " 0 (  0.0%… " 1 (  1.3%)"    " 2 (  2.6%)"   
#>  8 CARDIAC D… "   SINUS… " 0 (  0.0%… " 3 (  3.9%)"    " 1 (  1.3%)"   
#>  9 CARDIAC D… "   SUPRA… " 1 (  2.1%… " 0 (  0.0%)"    " 1 (  1.3%)"   
#> 10 CARDIAC D… "   SUPRA… " 0 (  0.0%… " 0 (  0.0%)"    " 1 (  1.3%)"   
#> # … with 94 more rows, and 3 more variables: ord_layer_index <int>,
#> #   ord_layer_1 <int>, ord_layer_2 <dbl>
…
