Risk Difference • Tplyr
…
suppressWarnings(
  get_stats_data(t)
  )
#> $PreferredTerm
#> $PreferredTerm$riskdiff
#> # A tibble: 105 x 4
#>    summary_var      measure `Xanomeline High Dose_Pla… `Xanomeline Low Dose_Pla…
#>    <chr>            <chr>                        <dbl>                     <dbl>
#>  1 ACTINIC KERATOS… comp                        0.0238                    0     
#>  2 ACTINIC KERATOS… ref                         0                         0     
#>  3 ACTINIC KERATOS… dif                         0.0238                    0     
#>  4 ACTINIC KERATOS… low                        -0.0461                    0     
#>  5 ACTINIC KERATOS… high                        0.0937                    0     
#>  6 ALOPECIA         comp                        0                         0     
#>  7 ALOPECIA         ref                         0.0476                    0.0476
#>  8 ALOPECIA         dif                        -0.0476                   -0.0476
#>  9 ALOPECIA         low                        -0.174                    -0.174 
#> 10 ALOPECIA         high                        0.0792                    0.0792
#> # … with 95 more rows
…
