Attach column headers to a Tplyr output — add_column_headers • Tplyr
…
iris2 <- iris %>%
  mutate_all(as.character)

iris2 %>% add_column_headers(header_string)
#> # A tibble: 152 x 5
#>    Sepal.Length Sepal.Width Petal.Length Petal.Width Species  
#>    <chr>        <chr>       <chr>        <chr>       <chr>    
#>  1 Sepal        ""          Petal        ""          ""       
#>  2 Length       "Width"     Length       "Width"     "Species"
#>  3 5.1          "3.5"       1.4          "0.2"       "setosa" 
#>  4 4.9          "3"         1.4          "0.2"       "setosa" 
#>  5 4.7          "3.2"       1.3          "0.2"       "setosa" 
#>  6 4.6          "3.1"       1.5          "0.2"       "setosa" 
#>  7 5            "3.6"       1.4          "0.2"       "setosa" 
#>  8 5.4          "3.9"       1.7          "0.4"       "setosa" 
#>  9 4.6          "3.4"       1.4          "0.3"       "setosa" 
#> 10 5            "3.4"       1.5          "0.2"       "setosa" 
#> # … with 142 more rows
…
