Get statistics data — get_stats_data • Tplyr
…
#>  1 0           comp     0.333
#>  2 0           ref      1    
#>  3 0           dif     -0.667
#>  4 0           low     -1    
#>  5 0           high    -0.325
#>  6 1           comp     0.667
#>  7 1           ref      0    
#>  8 1           dif      0.667
#>  9 1           low      0.325
#> 10 1           high     1    
#> 
#> 
#> $carb
#> $carb$riskdiff
#> # A tibble: 30 × 3
#>    summary_var measure   `4_3`
#>    <chr>       <chr>     <dbl>
#>  1 1           comp     0.333 
#>  2 1           ref      0.2   
#>  3 1           dif      0.133 
#>  4 1           low     -0.277 
#>  5 1           high     0.543 
#>  6 2           comp     0.333 
#>  7 2           ref      0.267 
#>  8 2           dif      0.0667
#>  9 2           low     -0.348 
#> 10 2           high     0.481 
#> # … with 20 more rows
…
#>    summary_var measure  `4_3`
#>    <chr>       <chr>    <dbl>
#>  1 0           comp     0.333
#>  2 0           ref      1    
#>  3 0           dif     -0.667
#>  4 0           low     -1    
#>  5 0           high    -0.325
#>  6 1           comp     0.667
#>  7 1           ref      0    
#>  8 1           dif      0.667
#>  9 1           low      0.325
#> 10 1           high     1    
#> 
#> $carb
#> # A tibble: 30 × 3
#>    summary_var measure   `4_3`
#>    <chr>       <chr>     <dbl>
#>  1 1           comp     0.333 
#>  2 1           ref      0.2   
#>  3 1           dif      0.133 
#>  4 1           low     -0.277 
#>  5 1           high     0.543 
#>  6 2           comp     0.333 
#>  7 2           ref      0.267 
#>  8 2           dif      0.0667
#>  9 2           low     -0.348 
#> 10 2           high     0.481 
#> # … with 20 more rows
…
