Retrieve the numeric data from a tplyr objects — get_numeric_data • Tplyr
…
# Load in pipe
library(magrittr)

t <- tplyr_table(mtcars, gear) %>%
 add_layer(name='drat',
           group_desc(drat)
 ) %>%
 add_layer(name='cyl',
           group_count(cyl)
 )

 # Return a list of the numeric data frames
 get_numeric_data(t)
#> $drat
#> # A tibble: 27 x 4
#>    summary_var gear  stat     value
#>    <chr>       <fct> <chr>    <dbl>
#>  1 drat        3     n       15    
#>  2 drat        3     mean     3.13 
#>  3 drat        3     sd       0.274
#>  4 drat        3     median   3.08 
#>  5 drat        3     q1       3.04 
#>  6 drat        3     q3       3.18 
#>  7 drat        3     min      2.76 
#>  8 drat        3     max      3.73 
#>  9 drat        3     missing  0    
#> 10 drat        4     n       12    
#> # … with 17 more rows
…
 # Get the data from a specific layer
 get_numeric_data(t, layer='drat')
#> # A tibble: 27 x 4
#>    summary_var gear  stat     value
#>    <chr>       <fct> <chr>    <dbl>
#>  1 drat        3     n       15    
#>  2 drat        3     mean     3.13 
#>  3 drat        3     sd       0.274
#>  4 drat        3     median   3.08 
#>  5 drat        3     q1       3.04 
#>  6 drat        3     q3       3.18 
#>  7 drat        3     min      2.76 
#>  8 drat        3     max      3.73 
#>  9 drat        3     missing  0    
#> 10 drat        4     n       12    
#> # … with 17 more rows
 get_numeric_data(t, layer=1)
#> # A tibble: 27 x 4
#>    summary_var gear  stat     value
#>    <chr>       <fct> <chr>    <dbl>
#>  1 drat        3     n       15    
#>  2 drat        3     mean     3.13 
#>  3 drat        3     sd       0.274
#>  4 drat        3     median   3.08 
#>  5 drat        3     q1       3.04 
#>  6 drat        3     q3       3.18 
#>  7 drat        3     min      2.76 
#>  8 drat        3     max      3.73 
#>  9 drat        3     missing  0    
#> 10 drat        4     n       12    
#> # … with 17 more rows
…
#> # A tibble: 9 x 4
#>   gear  summary_var     n total
#>   <chr> <chr>       <dbl> <int>
#> 1 3     4               1    15
#> 2 3     6               2    15
#> 3 3     8              12    15
#> 4 4     4               8    12
#> 5 4     6               4    12
#> 6 4     8               0    12
#> 7 5     4               2     5
#> 8 5     6               1     5
#> 9 5     8               2     5
#> 
#> $drat
#> # A tibble: 27 x 4
#>    summary_var gear  stat     value
#>    <chr>       <fct> <chr>    <dbl>
#>  1 drat        3     n       15    
#>  2 drat        3     mean     3.13 
#>  3 drat        3     sd       0.274
#>  4 drat        3     median   3.08 
#>  5 drat        3     q1       3.04 
#>  6 drat        3     q3       3.18 
#>  7 drat        3     min      2.76 
#>  8 drat        3     max      3.73 
#>  9 drat        3     missing  0    
#> 10 drat        4     n       12    
#> # … with 17 more rows
…
#> # A tibble: 9 x 4
#>   gear  summary_var     n total
#>   <chr> <chr>       <dbl> <int>
#> 1 3     4               1    15
#> 2 3     6               2    15
#> 3 3     8              12    15
#> 4 4     4               8    12
#> 5 4     6               4    12
#> 6 4     8               0    12
#> 7 5     4               2     5
#> 8 5     6               1     5
#> 9 5     8               2     5
#> 
#> $drat
#> # A tibble: 27 x 4
#>    summary_var gear  stat     value
#>    <chr>       <fct> <chr>    <dbl>
#>  1 drat        3     n       15    
#>  2 drat        3     mean     3.13 
#>  3 drat        3     sd       0.274
#>  4 drat        3     median   3.08 
#>  5 drat        3     q1       3.04 
#>  6 drat        3     q3       3.18 
#>  7 drat        3     min      2.76 
#>  8 drat        3     max      3.73 
#>  9 drat        3     missing  0    
#> 10 drat        4     n       12    
#> # … with 17 more rows
…
