General String Formatting • Tplyr
…
For both layer types, a capital A follows the same logic
as X, but is triggered using auto-precision. Take this
example of an adverse event table:

tplyr_table(tplyr_adae, TRTA) %>% 
  set_pop_data(tplyr_adsl) %>% 
  set_pop_treat_var(TRT01A) %>% 
  add_layer(
    group_count(AEDECOD) %>% 
      set_format_strings(f_str("a (XX.x%) [A]", distinct_n, distinct_pct, n)) %>% 
      set_distinct_by(USUBJID)
  ) %>% 
  build() %>% 
  select(1:3)
#> # A tibble: 21 × 3
#>    row_label1         var1_Placebo      `var1_Xanomeline High Dose`
#>    <chr>              <chr>             <chr>                      
#>  1 ACTINIC KERATOSIS  " 0  (0.0%)  [0]" " 1  (1.2%)  [1]"          
#>  2 ALOPECIA           " 1  (1.2%)  [1]" " 0  (0.0%)  [0]"          
#>  3 BLISTER            " 0  (0.0%)  [0]" " 1  (1.2%)  [2]"          
#>  4 COLD SWEAT         " 1  (1.2%)  [3]" " 0  (0.0%)  [0]"          
#>  5 DERMATITIS ATOPIC  " 1  (1.2%)  [1]" " 0  (0.0%)  [0]"          
#>  6 DERMATITIS CONTACT " 0  (0.0%)  [0]" " 0  (0.0%)  [0]"          
#>  7 DRUG ERUPTION      " 1  (1.2%)  [1]" " 0  (0.0%)  [0]"          
#>  8 ERYTHEMA           " 9 (10.5%) [13]" "14 (16.7%) [22]"          
#>  9 HYPERHIDROSIS      " 2  (2.3%)  [2]" " 8  (9.5%) [10]"          
#> 10 PRURITUS           " 8  (9.3%) [11]" "26 (31.0%) [38]"          
#> # ℹ 11 more rows
…
