Post-Processing • Tplyr
…
dat <- tplyr_table(tplyr_adsl, TRT01P) %>% 
  add_layer(
    group_count(RACE, by = vars("Race n (%)", SEX))
  ) %>% 
  add_layer(
    group_desc(AGE, by = vars("Age (years)", SEX))
  ) %>% 
  build()

collapse_row_labels(dat, row_label1, row_label2, row_label3) %>% 
  select(row_label, var1_Placebo)
#> # A tibble: 26 × 2
#>    row_label                              var1_Placebo 
#>    <chr>                                  <chr>        
#>  1 "Race n (%)"                           ""           
#>  2 "  F"                                  ""           
#>  3 "    AMERICAN INDIAN OR ALASKA NATIVE" " 0 (  0.0%)"
#>  4 "    BLACK OR AFRICAN AMERICAN"        " 5 (  5.8%)"
#>  5 "    WHITE"                            "48 ( 55.8%)"
#>  6 "Race n (%)"                           ""           
#>  7 "  M"                                  ""           
#>  8 "    AMERICAN INDIAN OR ALASKA NATIVE" " 0 (  0.0%)"
#>  9 "    BLACK OR AFRICAN AMERICAN"        " 3 (  3.5%)"
#> 10 "    WHITE"                            "30 ( 34.9%)"
#> # ℹ 16 more rows
…
