Risk Difference • Tplyr
…
suppressWarnings(
  get_stats_data(t)
  )
#> $PreferredTerm
#> $PreferredTerm$riskdiff
#> # A tibble: 105 × 4
#>    summary_var       measure `Xanomeline High Dose_Placebo` Xanomeline Low Dos…¹
#>    <chr>             <chr>                            <dbl>                <dbl>
#>  1 ACTINIC KERATOSIS comp                            0.0238               0     
#>  2 ACTINIC KERATOSIS ref                             0                    0     
#>  3 ACTINIC KERATOSIS dif                             0.0238               0     
#>  4 ACTINIC KERATOSIS low                            -0.0461               0     
#>  5 ACTINIC KERATOSIS high                            0.0937               0     
#>  6 ALOPECIA          comp                            0                    0     
#>  7 ALOPECIA          ref                             0.0476               0.0476
#>  8 ALOPECIA          dif                            -0.0476              -0.0476
#>  9 ALOPECIA          low                            -0.174               -0.174 
#> 10 ALOPECIA          high                            0.0792               0.0792
#> # … with 95 more rows, and abbreviated variable name
#> #   ¹​`Xanomeline Low Dose_Placebo`
…
