…
  mutate(
    across(starts_with('var'),
    ~ if_else(
      ord_layer_index %in% c(1, 3:5),
      apply_conditional_format(
        string = .,
        format_group = 2,
        condition = x == 0,
        replacement = ""
      ),
      .
      )
    )
  )
#> # A tibble: 23 × 9
#>    row_label1          row_label2 var1_Placebo var1_Total var1_Xanomeline High…¹
#>    <chr>               <chr>      <chr>        <chr>      <chr>                 
#>  1 Sex n (%)           Female     " 53 ( 61.6… "143 ( 56… " 40 ( 47.6%)"        
#>  2 Sex n (%)           Male       " 33 ( 38.4… "111 ( 43… " 44 ( 52.4%)"        
#>  3 Sex n (%)           Missing    " 0"         " 0"       " 0"                  
#>  4 Age (Years)         n          " 86"        "254"      " 84"                 
#>  5 Age (Years)         Mean (SD)  "75.2 ( 8.5… "75.1 ( 8… "74.4 ( 7.89)"        
#>  6 Age (Years)         Median     "76.0"       "77.0"     "76.0"                
#>  7 Age (Years)         Q1, Q3     "69.2, 81.8" "70.0, 81… "70.8, 80.0"          
#>  8 Age (Years)         Min, Max   "52, 89"     "51, 89"   "56, 88"              
#>  9 Age (Years)         Missing    "  0"        "  0"      "  0"                 
#> 10 Age Categories n (… <65        " 14 ( 16.3… " 33 ( 13… " 11 ( 13.1%)"        
#> # ℹ 13 more rows
#> # ℹ abbreviated name: ¹​`var1_Xanomeline High Dose`
#> # ℹ 4 more variables: `var1_Xanomeline Low Dose` <chr>, ord_layer_index <int>,
#> #   ord_layer_1 <int>, ord_layer_2 <dbl>
```
…
